{
  "$schema": "http://json-schema.org/draft-07/schema#",
  "title": "touristVouchers",
  "type": "array",
  "items": {
    "type": "object",
    "properties": {
      "id": {
        "type": "integer"
      },
      "type": {
        "string": "string"
      },
      "country": {
        "type": "string"
      },
      "quantityDays": {
        "type": "integer"
      },
      "quantityNights": {
        "type": "integer"
      },
      "transportType": {
        "type": "string",
        "pattern": "car|bus|train|airplane|ship"
      },
      "hotel": {
        "type": "object",
        "properties": {
          "hotelName": {
            "type": "string"
          },
          "hotelRating": {
            "type": "number"
          },
          "apartment": {
            "type": "object",
            "properties": {
              "idNumber": {
                "type": "integer"
              },
              "quantityPerson": {
                "type": "integer"
              }
            }
          },
          "hotelService": {
            "type": "object",
            "properties": {
              "meal": {
                "type": "boolean"
              },
              "tv": {
                "type": "boolean"
              },
              "conditioner": {
                "type": "boolean"
              }
            }
          }
        }
      }
    }
  }
}